......................
----------------------------------------------------------------------
Ran 22 tests in 17.153s

OK
Name             Stmts   Miss Branch BrPart  Cover   Missing
------------------------------------------------------------
Collatz.py          31      0     12      0   100%
TestCollatz.py      77      0      0      0   100%
------------------------------------------------------------
TOTAL              108      0     12      0   100%