.....................
----------------------------------------------------------------------
Ran 21 tests in 23.712s

OK
<_io.StringIO object at 0x11d4041f0>
Name             Stmts   Miss Branch BrPart  Cover   Missing
------------------------------------------------------------
Collatz.py          33      0     12      0   100%
TestCollatz.py      92      0      2      0   100%
------------------------------------------------------------
TOTAL              125      0     14      0   100%
