......................
----------------------------------------------------------------------
Ran 22 tests in 1.206s

OK
Name             Stmts   Miss Branch BrPart  Cover   Missing
------------------------------------------------------------
Collatz.py          62      0     22      0   100%
TestCollatz.py     109      0      0      0   100%
------------------------------------------------------------
TOTAL              171      0     22      0   100%
