1 10 20
100 200 125
201 210 89
900 1000 174
23 41 112
12 12 10
120 140 122
12 15 18
1 3 8
3 33 112
2 22 21
1 11 20
4 44 112
5 55 113
6 66 113
7 77 116
8 88 116
9 99 119
99 100 26
100 111 114
100 101 26
34 4925 238
106 9013 262
145 8680 262
150 3736 238
191 1842 182
293 9134 262
406 7410 262
446 2407 183
514 4955 238
526 5284 238
609 1066 179
663 2027 182
690 9443 262
701 5888 238
773 4162 238
874 1553 182
882 3232 217
996 2317 183
1056 8468 262
1072 3509 217
1112 4318 238
1358 2413 183
1461 9290 262
1653 2713 209
1737 2226 183
1965 4674 238
2059 9670 262
2061 3957 238
2121 8830 262
2163 2480 209
2174 7521 262
2212 7752 262
2220 2821 209
2494 2822 191
2610 4266 238
2660 7478 262
2820 9317 262
2876 4762 238
2913 5002 238
2932 5100 238
3002 4580 238
3117 3237 199
3135 8007 262
3139 7131 262
3147 9505 262
3154 5864 238
3194 8382 262
3369 3629 194
3403 6047 238
3486 6011 238
3502 6746 262
3554 4102 238
3729 4482 215
3797 3839 176
3807 4350 202
3819 8232 262
3971 8550 262
4047 7683 262
4063 5045 215
4133 8439 262
4235 8338 262
4323 9708 262
4383 9465 262
4460 7232 262
4581 4985 210
4626 9540 262
4642 5641 236
4649 4686 153
4704 9424 262
4753 9610 262
4772 6576 262
4796 6889 262
4845 5905 236
4911 5701 236
4989 9669 262
5053 6468 262
5068 9660 262
5124 6080 236
5133 9727 262
5184 6971 262
5213 5626 236
5248 8755 262
5274 7682 262
5441 9450 262
5479 8379 262
5507 9113 262
5683 6458 262
5758 5934 218
5799 8486 262
5834 6854 262
5837 6951 262
5874 6885 262
5926 6210 262
5943 8789 262
5973 9819 262
6042 8512 262
6061 6236 262
6070 6481 262
6112 8813 262
6153 8276 262
6254 8941 257
6261 8682 257
7009 9921 260
7143 7292 195
7149 8367 252
7185 9954 260
7207 8265 252
7228 8449 252
7243 8475 252
7247 7383 195
7483 9270 260
7503 9408 260
7602 9048 252
7632 8390 252
7648 9032 252
7652 9606 260
7943 8886 252
8065 8165 190
8330 8369 234
8467 9315 260
8587 9619 260
8669 9163 247
8681 9899 260
8790 9115 247
8837 9111 247
8930 9951 260
9071 9878 260
9122 9166 198
9243 9585 260
9252 9600 260
9281 9432 198
9282 9833 198
9342 9902 242
9384 9916 242
9450 9952 242
9656 9860 211
9669 9690 167
9708 9872 211
9996 9999 180
